<?xml version="1.0" encoding="UTF-8" standalone="no"?>
<!-- Created with Inkscape (http://www.inkscape.org/) -->

<svg
   width="165.084mm"
   height="85.461296mm"
   viewBox="0 0 165.084 85.461296"
   version="1.1"
   id="svg5"
   inkscape:version="1.1 (1:1.1+202105261517+ce6663b3b7)"
   sodipodi:docname="AllenKeyBall.svg"
   inkscape:export-filename="./AllenKeyBall.png"
   inkscape:export-xdpi="127.76"
   inkscape:export-ydpi="127.76"
   xmlns:inkscape="http://www.inkscape.org/namespaces/inkscape"
   xmlns:sodipodi="http://sodipodi.sourceforge.net/DTD/sodipodi-0.dtd"
   xmlns="http://www.w3.org/2000/svg"
   xmlns:svg="http://www.w3.org/2000/svg">
  <sodipodi:namedview
     id="namedview7"
     pagecolor="#ffffff"
     bordercolor="#666666"
     borderopacity="1.0"
     inkscape:pageshadow="2"
     inkscape:pageopacity="1"
     inkscape:pagecheckerboard="0"
     inkscape:document-units="mm"
     showgrid="false"
     fit-margin-top="5"
     fit-margin-left="5"
     fit-margin-right="5"
     fit-margin-bottom="5"
     inkscape:current-layer="layer1" />
  <defs
     id="defs2">
    <inkscape:path-effect
       effect="fill_between_many"
       method="originald"
       linkedpaths="#path652,0,1|#path650,0,1|#path648,0,1|#path646,0,1|#path644,0,1|#path642,0,1|#path640,0,1|#path638,0,1|#path636,0,1|#path634,0,1|#path632,0,1|#path630,0,1|#path628,0,1"
       id="path-effect918"
       is_visible="true"
       lpeversion="0"
       join="true"
       close="true"
       autoreverse="true"
       applied="false" />
  </defs>
  <g
     inkscape:label="Layer 1"
     inkscape:groupmode="layer"
     id="layer1"
     transform="translate(797.93391,635.34399)">
    <g
       id="g3297"
       transform="matrix(0.41580063,0,0,0.41580063,-616.00986,-533.51786)"
       style="stroke-width:2.405">
      <path
         id="path2226"
         style="fill:#444444;stroke-width:2.405"
         d="m -285.95898,-95.363281 c -3.3229,0.925213 -6.6465,1.847905 -9.96875,2.77539 -2.36366,2.069979 -4.72825,4.136654 -7.08985,6.208985 -1.11138,4.030041 -2.28912,8.04769 -3.35793,12.085799 -0.0673,0.533721 -0.22482,1.093959 0.31161,1.436917 1.70913,1.967314 3.41655,3.936122 5.12835,5.901112 0.46825,-0.437258 1.01962,-0.825087 1.05183,-1.525205 1.62274,-5.757297 3.1773,-11.534075 4.86224,-17.273623 3.36548,-2.991424 6.73345,-5.980041 10.0996,-8.970703 -0.3517,-0.180598 -0.57787,-0.909797 -1.0371,-0.638672 z m 0.34375,13.300781 c 0.59283,0.468915 1.18885,0.932471 1.78125,1.402344 0.31922,-0.516642 0.63643,-1.034261 0.95898,-1.548828 -0.77722,-0.657222 -1.84441,-0.628209 -2.7902,-0.866589 -0.40019,-2.78e-4 -1.84153,-0.496789 -0.96672,0.110619 0.33889,0.300818 0.67779,0.601636 1.01669,0.902454 z" />
      <path
         id="path2224"
         style="fill:#404040;stroke-width:2.405"
         d="m -425.48393,-131.3693 v 18.46289 c 48.60097,17.635908 52.32263,19.65076 100.92338,37.287269 0.66748,0.220467 0.99959,-0.04578 1.03714,-0.73686 1.69357,-6.072496 3.38725,-12.144964 5.0781,-18.218218 -49.90839,-17.455861 -54.92408,-19.332271 -104.83592,-36.777601 -0.73427,-0.25312 -1.46866,-0.50588 -2.2027,-0.75967 z m 129.80229,45.084144 c -0.76752,0.619693 -0.70883,1.700865 -1.04724,2.560645 -1.52502,5.444698 -3.05005,10.889396 -4.57581,16.333886 1.29354,0.862754 2.86744,1.146316 4.28813,1.746385 1.94903,0.668376 3.86016,1.470303 5.83194,2.057945 0.99001,0.18867 1.97314,0.530438 2.98258,0.265417 0.9235,-0.05377 1.81772,-0.215763 2.63759,-0.663532 0.76636,-0.339691 1.63151,-0.538362 2.11205,-1.290317 0.74515,-0.851303 1.63678,-1.604745 2.29158,-2.51599 0.47262,-1.131396 1.12065,-2.209771 1.19382,-3.461977 0.1079,-1.083143 0.61567,-2.172904 0.22543,-3.247229 -0.28354,-1.132544 -0.39285,-2.333693 -0.78004,-3.42481 -0.38188,-0.613371 -0.76421,-1.226468 -1.14441,-1.840892 0.39448,-0.259228 1.42971,-0.243089 1.38579,-0.689794 -0.29105,-0.638698 -0.58296,-1.277002 -0.87407,-1.915675 -0.84165,-0.112384 -1.68354,-0.223013 -2.52539,-0.333984 -0.26724,0.79476 -0.74919,0.284404 -1.20742,-0.06549 -1.59864,-0.712172 -3.31933,-1.187813 -4.96478,-1.809228 -1.86447,-0.654402 -3.72856,-1.309887 -5.59342,-1.963175 -0.0788,0.08594 -0.15755,0.171875 -0.23633,0.257813 z"
         sodipodi:nodetypes="ccccccccsccccccccccccccccccss" />
      <path
         id="path2222"
         style="fill:#3d3d3d;stroke-width:2.405"
         d="m -425.49565,-142.28337 c 0.0505,3.77799 0.0983,7.55602 0.15039,11.33399 50.15906,17.57211 55.43987,19.52026 105.60112,37.086099 0.64409,-0.07032 1.33055,-0.0386 1.75668,-0.617885 3.16313,-2.652889 6.3284,-5.30325 9.49137,-7.956334 0.0265,-0.45595 0.2933,-1.06652 -0.39931,-1.06361 -53.36703,-18.25039 -61.85368,-20.88415 -115.22134,-39.13187 -0.43103,0.0289 -1.42141,-0.64685 -1.38438,-0.0321 0.002,0.12723 0.004,0.25445 0.005,0.38167 z m 139.67729,46.988448 c -3.54363,2.98369 -6.93719,6.143372 -10.41602,9.203125 0.41497,0.584789 1.03933,0.839231 1.7115,1.012055 3.30174,1.108798 6.5837,2.30687 9.89761,3.360736 0.91683,0.1056 1.83361,0.211604 2.75027,0.318615 0.56638,0.634985 -0.30281,0.654873 -0.76136,0.852952 -0.96458,0.05955 -0.44093,0.62467 -0.078,1.135897 0.29994,0.455954 0.5972,0.913715 0.89597,1.370526 0.42491,-0.385281 1.3523,-0.488886 1.16211,-1.215625 -0.19174,-0.669136 0.35663,-1.031706 0.77782,-1.446958 0.48183,-0.382725 0.80635,-1.156951 1.52726,-0.966323 1.1623,0.05854 2.1896,-0.650302 3.28892,-0.949753 1.18617,-0.285113 1.99974,-1.247025 2.98022,-1.907669 0.31299,-0.750845 0.79651,-1.482145 1.00426,-2.246581 -0.22075,-0.717988 -0.12889,-1.588919 -0.54297,-2.211309 -0.79881,-0.836374 -1.41822,-1.882596 -2.50817,-2.376094 -1.26889,-0.902939 -2.85447,-1.132415 -4.28038,-1.701324 -2.39311,-0.809741 -4.78707,-1.616999 -7.18055,-2.425629 -0.0762,0.06445 -0.15235,0.128906 -0.22852,0.193359 z"
         sodipodi:nodetypes="ccccccccccscccccccccccccccccss" />
      <path
         id="path2220"
         style="fill:#373737;stroke-width:2.405"
         d="m -319.41016,-94.546875 c -0.56978,0.710216 -0.54989,1.720121 -0.87756,2.553421 -1.46448,5.272892 -2.92684,10.546371 -4.39001,15.819626 0.36912,0.403619 0.73384,0.823848 1.33703,0.760269 5.23005,0.709164 10.45694,1.489762 15.68863,2.156849 0.6958,-0.03396 1.39173,-0.06475 2.08762,-0.09681 1.1505,-4.137801 2.34906,-8.267804 3.4707,-12.410156 0.20534,-0.630123 -0.33239,-0.808869 -0.82394,-1.019923 -5.40878,-2.700735 -10.81893,-5.398707 -16.22684,-8.101171 -0.0885,0.112631 -0.17708,0.225261 -0.26563,0.337891 z m 40.00977,11.949219 c -0.64975,0.625181 -1.44062,1.160501 -2.00925,1.836568 -0.1659,0.775398 -0.5079,1.560717 -0.56768,2.330808 0.56089,0.522091 -0.11309,1.098688 -0.20789,1.296075 0.55801,-0.07109 1.21617,0.06178 1.71391,-0.132204 0.60316,-0.78285 1.32445,-1.495525 1.85802,-2.313669 0.24996,-1.042992 0.71895,-2.054469 0.60742,-3.148438 -0.44621,0.06946 -1.0308,-0.146962 -1.39453,0.13086 z m 14.58203,17.080078 c -1.402,1.324346 -2.82244,2.633672 -4.00637,4.162251 -0.60205,0.74372 -1.37533,1.390988 -1.53493,2.383935 -0.17719,0.486404 1.0393,-0.190105 1.30533,-0.436849 1.49759,-1.478889 3.05163,-2.915881 4.51331,-4.421837 0.48882,-0.793496 1.00916,-1.61396 1.15235,-3.211332 z"
         sodipodi:nodetypes="sccccccccssccccccccccccccc" />
      <path
         id="path2218"
         style="fill:#353535;stroke-width:2.405"
         d="m -309.49219,-103.06445 c -3.50915,2.97208 -7.01921,5.943087 -10.52929,8.914059 5.62356,2.825795 11.24722,5.651381 16.87109,8.476563 0.5121,0.04357 1.03933,0.139964 1.36096,-0.361762 2.28818,-2.014702 4.57628,-4.015855 6.86365,-6.032769 -2.47377,-2.280063 -5.17879,-4.300594 -7.75034,-6.471123 -1.89132,-1.549798 -3.7814,-3.101108 -5.67349,-4.649968 -0.36624,0.0605 -0.85157,-0.13094 -1.14258,0.125 z m 32.51758,20.076169 c -0.64943,0.132535 -1.29961,0.260836 -1.94922,0.392578 -0.25581,0.886738 -0.39852,1.831553 -0.72135,2.683326 -0.63113,0.73414 -1.25911,1.470984 -1.88998,2.205346 0.24934,0.777383 0.41295,1.566637 0.35938,2.386719 0.53549,-0.05721 1.20632,0.206511 1.51962,-0.375305 0.9395,-1.024713 2.02591,-1.972307 2.87967,-3.041342 0.2322,-1.231548 0.46334,-2.463297 0.69641,-3.694682 -0.30053,-0.180178 -0.48696,-0.759713 -0.89453,-0.55664 z m 13.25586,12.61914 c -0.26578,0.598428 -0.58571,1.189444 -0.5293,1.851563 -0.26797,0.626546 -0.63173,1.232385 -0.49804,1.941406 -0.87094,1.037889 -1.90871,1.961042 -2.67883,3.067785 -0.46351,0.795703 -0.72198,1.671419 -0.95399,2.557215 1.48127,-0.878214 2.55281,-2.241751 3.77735,-3.423828 -0.25172,-0.362774 0.35443,-0.01818 0.72461,-0.732422 0.37895,-0.424157 -0.0642,-1.145897 0.35056,-1.613328 0.32737,-0.447551 0.25145,-0.98186 0.36486,-1.470668 0.33809,-0.649571 0.58198,-1.325549 0.4487,-2.068266 -0.10791,-0.381044 -0.0212,-1.70539 -0.25681,-1.467534 -0.24971,0.452692 -0.49941,0.905385 -0.74911,1.358077 z m 0.48633,0.0078 c -0.14842,0.836755 -0.39319,-0.299527 0,0 z" />
      <path
         id="path2216"
         style="fill:#2b2b2b;stroke-width:2.405"
         d="m -275.08789,-83.685547 c -0.66778,0.205892 -1.33582,0.410211 -2.00391,0.615235 -0.27001,1.348049 -0.39655,2.770808 -0.75464,4.072324 -1.02446,1.015681 -2.05039,2.02762 -3.07544,3.04291 -0.0189,0.829473 -0.0646,1.663652 0.35547,2.412109 0.0688,0.56988 0.86544,0.36012 1.22639,0.161034 1.82911,-0.886288 3.70598,-1.703353 5.50604,-2.631737 0.63049,-0.339579 0.28731,-1.003994 0.2448,-1.566597 -0.30086,-2.095848 -0.60504,-4.191217 -0.90691,-6.286919 -0.19727,0.06055 -0.39453,0.121094 -0.5918,0.181641 z m 11.31641,13.726563 c -0.5976,0.20112 -0.82076,0.68498 -0.90426,1.274896 -0.22199,0.753144 -0.31367,1.578089 -0.9911,2.078424 -0.80439,0.652982 -0.95369,1.717363 -1.31053,2.633667 -0.0103,0.333332 -0.69675,1.712778 -0.20326,1.266756 1.11891,-0.939973 2.21625,-1.961231 3.16262,-3.051226 0.47036,-1.640346 0.94074,-3.279993 1.40863,-4.921267 -0.38736,0.239583 -0.77473,0.479166 -1.1621,0.71875 z m -17.08204,14.349609 c -0.81992,0.648836 -1.91496,0.996595 -2.73773,1.648231 2.26065,0.170501 4.02285,0.01273 5.86181,-0.283078 0.91765,-0.316747 1.76109,-0.791353 2.60639,-1.261637 -1.84702,-0.314635 -3.72182,-0.181914 -5.58593,-0.21875 l -0.0782,0.06234 z"
         sodipodi:nodetypes="ccccccccccccccccccccccccc" />
      <path
         id="path2214"
         style="fill:#252525;stroke-width:2.405"
         d="m -274.73047,-83.955078 c -0.48215,0.407596 -0.93099,0.828192 -0.63114,1.497024 0.26774,1.621544 0.38915,3.284635 0.74343,4.881136 0.61385,0.695032 -0.086,0.896375 -0.68717,1.134958 -1.78427,0.828992 -3.56866,1.657722 -5.35285,2.486882 v 1.810547 c 1.23399,0.11935 2.32165,-0.616612 3.48194,-0.926991 1.95468,-0.691378 3.91334,-1.37046 5.85985,-2.082775 -0.78313,-0.562657 -1.50827,-1.291143 -2.32655,-1.753028 -0.74416,0.09582 0.22648,-0.857165 0.024,-1.286513 0.13801,-1.255596 0.18224,-2.509289 -0.0333,-3.759287 -0.0982,-0.928331 -0.19653,-1.856643 -0.29297,-2.785156 l -0.78516,0.783203 z m 9.74805,12.802734 c -0.16336,0.957318 -0.16413,1.994437 -0.42452,2.9044 -0.75725,0.761024 -1.47252,1.577386 -2.48694,1.994929 -0.53787,0.310297 0.34531,1.077522 0.42708,1.586999 0.32631,0.68352 0.65014,1.368979 0.97657,2.052735 0.46419,-1.014232 0.8377,-2.094056 1.35974,-3.066608 0.34065,-0.424488 1.04862,-0.684473 1.14221,-1.21933 -0.1673,-1.007962 0.61232,-1.789022 0.9668,-2.671093 0.23923,-0.507678 -0.36361,-1.036162 -0.48662,-1.552649 -0.0877,-0.728028 -0.82527,-0.445093 -1.34893,-0.494227 -0.15029,-0.01997 -0.0706,0.363222 -0.12539,0.464844 z m -21.74024,6.441406 c -0.72521,0.551578 -1.71686,0.220046 -2.56881,0.351466 -0.46876,0.102069 -1.41674,-0.260867 -1.1558,0.548925 -0.22547,0.698389 0.42148,0.844806 0.93196,1.080022 0.60116,0.288359 1.20195,0.577459 1.80242,0.867244 -0.11871,-0.459727 0.33563,-1.453108 0.73437,-1.169922 0.3254,0.441272 0.67859,0.822644 1.26446,0.677734 0.91468,0.250127 0.20148,-0.70394 0.16003,-1.161854 -0.10598,-0.563672 -0.3545,-1.049139 -0.78777,-1.429943 -0.12695,0.07878 -0.2539,0.157552 -0.38086,0.236328 z m 13.19141,7.347657 c -2.55141,0.330227 -5.10312,0.65817 -7.6543,0.990234 v 1.689453 c 1.67803,-0.03236 3.27521,0.95093 5.04493,-0.04687 1.27113,-0.568993 1.82271,-0.94055 3.09374,-1.509774 1.21732,-0.898555 0.0209,-1.214833 -0.48437,-1.123038 z"
         sodipodi:nodetypes="sccccccccccccscccccccccccccccccccccsccccss" />
      <path
         id="path2212"
         style="fill:#212121;stroke-width:2.405"
         d="m -273.67383,-90.816406 c -0.50387,0.347844 -0.63639,0.69891 -0.0616,1.066882 0.69485,0.753253 1.39068,1.505599 2.08505,2.25929 0.89388,0 1.78776,0 2.68164,0 -1.10478,-0.978947 -2.10023,-2.110051 -3.27393,-2.992921 -0.45629,-0.109661 -1.10259,-0.942303 -1.43115,-0.333251 z m -0.26172,6.363281 c -0.38799,0.371705 -1.05343,0.618807 -0.82581,1.264601 0.093,2.304375 0.18529,4.608783 0.27894,6.913133 0.2271,0.284501 1.30266,0.892368 0.95246,0.956057 -1.38365,0.167695 -2.67226,0.845715 -4.01153,1.235625 -1.12478,0.388104 -2.24999,0.774974 -3.37453,1.163787 -0.003,0.610674 -0.006,1.221353 -0.008,1.832031 1.02854,0.179491 1.84203,-0.573501 2.74697,-0.929138 1.60709,-0.8059 3.25821,-1.547714 4.83721,-2.395635 0.36606,-0.330727 0.6628,-0.845425 1.23518,-0.633891 1.07014,-0.186091 -1.0021,-0.121218 0.0432,-0.58092 0.38271,-0.40593 -0.0807,-1.099657 -0.0476,-1.625704 -0.3759,-2.600933 -0.72935,-5.205114 -1.09627,-7.807368 -0.24349,0.202474 -0.48698,0.404948 -0.73047,0.607422 z m 8.61133,5.923828 c 0.50521,2.292922 0.38218,4.661032 0.57769,6.991074 0.12114,0.584402 0.58464,1.151482 -0.14403,1.531833 -0.50929,0.688062 -1.46434,1.140823 -1.50717,2.075369 -0.15034,0.701539 -0.30001,1.40322 -0.44993,2.104849 -0.11266,-0.857667 -0.69085,-0.467321 -1.22009,-0.210429 -1.22764,0.505108 -2.43215,1.116917 -3.67287,1.55897 -0.35434,0.113993 -1.49968,-0.255323 -1.16149,0.283623 0.87616,1.769126 1.75445,3.537191 2.63258,5.305336 0.45919,-0.04115 0.98806,0.02651 1.19354,-0.489499 1.03772,-1.330962 2.16867,-2.599253 2.91458,-4.127648 0.49056,-0.526928 -0.22068,-1.101197 -0.36939,-1.65305 -0.14962,-0.520673 0.69174,-0.895578 0.94367,-1.357172 0.41827,-0.539597 1.03004,-1.004898 1.33518,-1.587865 0,-0.665235 0,-1.330469 0,-1.995703 0.0313,0.741221 0.66482,0.610219 1.21562,0.599609 0.48609,-0.1899 0.42056,-1.125597 0.68411,-1.617023 0.19065,-0.712261 0.43817,-1.453157 0.45183,-2.173993 -0.48517,-1.410364 -0.64603,-2.977069 -1.63007,-4.164081 -0.52734,-0.92905 -1.05401,-1.850991 -1.79376,-2.634747 0,0.520183 0,1.040365 0,1.560547 z m -18.10937,11.751953 c -0.75647,0.735706 -1.5042,1.484946 -2.51533,1.855964 -0.66122,0.366772 -0.8299,0.529355 -1.26941,0.37033 -0.4317,0.462342 -1.07058,0.831001 -1.37737,1.348316 -0.13236,0.621496 0.0726,1.049158 0.69048,1.241827 0.60934,0.358843 1.21753,0.719638 1.8271,1.078095 0.27697,-0.371037 0.26799,-1.389903 0.73576,-1.335147 1.24106,0.202638 2.54655,0.06334 3.81264,0.1312 0.74861,0.132971 -0.0609,-0.823166 -0.0944,-1.239463 -0.41387,-1.339523 -0.78407,-2.693201 -1.17858,-4.039012 -0.21029,0.195963 -0.42058,0.391927 -0.63086,0.58789 z m 7.94531,9.425782 c -0.72303,0.180545 -1.39101,0.469743 -2.15233,0.351707 -0.99484,9.64e-4 -2.00929,-0.126298 -2.93609,0.317973 -0.62785,0.179887 -1.16324,0.577257 -1.74752,0.859616 1.58067,0.419379 3.23157,0.375526 4.82373,0.04148 0.78824,-0.08482 1.49497,-0.385966 2.29656,-0.272397 0.72397,0.0333 1.43803,-0.124388 2.15705,-0.187055 -0.78933,-0.376543 -1.5662,-1.075672 -2.4414,-1.111328 z m 1.07031,1.08789 c -0.40722,-0.286249 -1.21805,-0.213629 -0.42344,-0.527283 0.59571,-0.479336 0.31418,0.143102 0.42344,0.527283 z m -3.32422,-0.152344 c -0.86587,0.78151 -0.98579,-0.560243 0,0 z" />
      <path
         id="path2210"
         style="fill:#1d1d1d;stroke-width:2.405"
         d="m -272.40625,-89.328125 c 0.46935,0.589563 -0.75796,-0.212375 -0.13819,0.796129 0.11212,0.719537 0.59418,1.455628 0.17139,2.151137 -0.003,0.456273 -0.82093,1.283288 -0.0602,1.390743 1.97748,0.74832 3.90546,1.65148 5.91182,2.308475 0.251,1.196738 0.32248,2.450766 0.98921,3.511792 0.66898,1.40786 1.33549,2.816894 2.00493,4.224537 0.23518,-0.414179 1.07784,-0.688502 0.83516,-1.215706 -1.01398,-2.903507 -1.92598,-5.849834 -3.00533,-8.726024 -0.24447,-0.32361 -0.6547,-1.773112 -0.69592,-0.716252 -0.16657,0.303609 -0.0738,1.769124 -0.38435,1.106258 -0.88115,-1.441022 -2.04022,-2.690291 -3.03667,-4.051792 -0.5912,0.102268 -0.66425,-0.723008 -1,-1.074219 -0.18631,-0.701124 -0.87829,-0.491829 -1.44258,-0.513672 -1.06479,-0.173504 -0.40414,0.27527 -0.14922,0.808594 z m -1.21484,4.546875 c -0.45606,0.325933 -0.64981,0.745245 -0.43347,1.297747 0.34309,2.617776 0.80305,5.227417 1.07018,7.850691 -2.61159,1.23771 -5.22255,2.476767 -7.83398,3.714843 -0.34778,1.020998 -0.52144,2.129219 -0.9749,3.096449 -0.61528,0.803831 -1.22711,1.610306 -1.84346,2.413317 0.43629,1.471714 0.87486,2.94275 1.3125,4.414062 2.16742,-0.115194 4.33458,-0.235473 6.50195,-0.351562 -1.97169,1.890918 -3.94522,3.779935 -5.91406,5.673828 0.38408,0.299722 0.69626,0.828532 1.12593,0.987111 2.52073,-0.499419 5.10605,-0.433254 7.65923,-0.64922 1.38558,-0.749109 2.53729,-1.820852 3.74414,-2.81836 -0.83837,-1.685871 -1.67335,-3.372735 -2.51172,-5.058594 -0.74623,0.03776 -1.49216,0.08118 -2.23828,0.121094 -1.90613,-2.075531 -3.90197,-4.155453 -5.75195,-6.228515 2.91075,-1.094312 5.82248,-2.186053 8.73437,-3.277344 0.43026,-0.353819 0.81833,-0.716487 0.50116,-1.299535 -0.67012,-3.16359 -1.33848,-6.327556 -2.00702,-9.491481 -0.37729,-0.272385 -0.74058,-1.133167 -1.11998,-0.414851 z m -12.78125,21.6875 c -0.10228,0.611236 -0.69547,1.281631 -0.12891,1.808594 0.17532,0.681775 0.83076,0.508216 1.3832,0.517578 0.54614,-0.252473 0.90986,-0.927038 1.38748,-1.337954 0.1527,-0.314477 1.3357,-1.06885 0.66957,-1.034099 -0.97587,0.03671 -1.9392,-0.01962 -2.8639,-0.357454 -0.4369,-0.24433 -0.30604,0.133459 -0.44744,0.403335 z" />
      <path
         id="path2208"
         style="fill:#1a1a1a;stroke-width:2.405"
         d="m -271.125,-89.609375 c -0.62942,0.02226 -1.25914,0.03572 -1.88867,0.05469 0.91577,0.660651 1.76925,1.486433 2.71911,2.049097 0.40092,-0.116256 1.34706,0.321064 1.27894,-0.276831 0.088,-0.564174 -0.0195,-1.010492 -0.64041,-1.143607 -0.49155,-0.2037 -0.95042,-0.592677 -1.46897,-0.683346 z m -1.70898,3.988281 c -0.27922,0.665884 -0.9406,1.280167 -0.56981,2.035936 0.63889,3.004354 1.27806,6.008646 1.91746,9.012892 -2.89438,1.172881 -5.8732,2.21287 -8.79883,3.337891 -0.19587,0.348657 -1.04754,0.666479 -0.78464,1.026212 1.99142,2.168297 3.98285,4.336586 5.9741,6.505038 -0.67274,0.273987 -1.41827,0.441023 -1.82372,1.104986 -1.63621,1.763253 -3.27145,3.527401 -4.90675,5.291498 0.30878,0.375317 0.56408,1.161329 0.90693,1.277299 2.59652,-2.432547 5.18514,-4.870837 7.78057,-7.304642 -0.67073,0.0259 0.15291,-0.848642 0.085,-1.299745 0.82519,-2.984249 1.65124,-5.968263 2.47754,-8.952209 1.98783,-1.965397 3.97082,-3.933253 5.95703,-5.90039 -0.41486,-1.129337 -0.72502,-2.320547 -1.20508,-3.41211 -0.48459,-0.537685 -0.89545,-1.179295 -1.66549,-1.305997 -1.48254,-0.552982 -2.94614,-1.207312 -4.43998,-1.699862 -0.33168,0.06582 -0.82364,-0.197766 -0.90429,0.283203 z m -33.50782,12.542969 c 1.12116,1.942759 2.1239,3.961377 3.31357,5.859042 2.19219,2.855704 4.38567,5.710423 6.57706,8.566739 0.44937,-0.08923 1.69044,0.287714 1.06019,-0.437232 -1.64598,-2.924737 -3.21958,-5.900363 -4.90931,-8.794218 -1.73154,-1.912739 -3.34301,-3.941049 -5.15346,-5.777989 -0.34645,-0.168697 -1.31985,-1.038068 -1.30109,-0.692852 0.13768,0.425503 0.27536,0.851007 0.41304,1.27651 z m 41.69727,0.978516 c -0.72464,0.790817 -1.6138,1.483073 -2.23828,2.333984 -0.40722,1.425402 -0.80776,2.839213 -1.21875,4.265625 0.65537,-0.03916 1.37216,0.07858 1.83594,-0.494141 0.59373,-0.263691 0.73396,-0.825174 0.82421,-1.416015 0.0196,-0.943849 1.06814,-1.361015 1.37891,-2.144532 0.18561,-1.227199 0.37172,-2.454313 0.55664,-3.68164 -0.37956,0.378906 -0.75911,0.757812 -1.13867,1.136719 z m -19.61914,9.060547 c -0.62309,0.59696 -1.24539,1.194747 -1.86914,1.791015 0.40512,0.395257 0.69656,1.003155 1.15859,1.273438 0.83303,0.124717 1.34028,-0.733124 2.01133,-1.097657 0.81763,-0.608182 1.6353,-1.2163 2.45312,-1.824218 -1.19407,-0.101515 -2.38787,-0.206137 -3.58203,-0.306641 -0.0573,0.05469 -0.11458,0.109375 -0.17187,0.164063 z" />
      <path
         id="path2206"
         style="fill:#151515;stroke-width:2.405"
         d="m -270.52148,-87.683594 c 0.65571,0.796364 1.30957,1.594247 1.96289,2.392578 0.14492,-0.843448 0.29435,-1.690825 0.43554,-2.53125 -0.58332,-0.33618 -1.10447,-0.88443 -1.83475,-0.72489 -0.41593,0.07937 -1.7477,-0.278516 -0.96837,0.372475 0.1349,0.163696 0.26979,0.327391 0.40469,0.491087 z m 3.35742,2.466797 c 0.0166,0.966774 -0.13156,1.962438 0.34961,2.847656 0.28002,0.436014 0.17752,1.418133 0.89648,1.228516 0.93715,0.283352 0.5854,-0.588946 0.54158,-1.184267 -0.13967,-0.887528 -0.12177,-1.848102 -0.35555,-2.691905 -0.47965,-0.519 -0.95456,-1.042362 -1.43212,-1.563281 0,0.454427 0,0.908854 0,1.363281 z m 1.74609,5.234375 c -1.54705,1.265925 -3.05353,2.57571 -4.40572,4.05173 -0.50968,0.622827 -1.2823,1.09193 -1.62581,1.811958 -1.09691,3.816922 -2.19382,7.633844 -3.29073,11.450765 0.89367,-0.219525 1.86609,-0.293159 2.71268,-0.600609 0.6739,-0.560699 0.59839,-1.561241 0.9238,-2.326101 0.68454,-2.397045 1.36661,-4.794792 2.04906,-7.19243 1.64233,-1.538024 3.28491,-3.075789 4.92774,-4.613282 -0.20071,-1.055706 -0.39851,-2.111967 -0.59766,-3.167968 -0.23112,0.195312 -0.46224,0.390625 -0.69336,0.585937 z m 0.68359,6.158203 c -0.96448,0.901492 -2.05907,1.719879 -2.94611,2.670176 -0.51651,1.860226 -1.14681,3.702735 -1.59198,5.574312 -0.12978,0.64237 0.006,1.030317 0.72247,0.843403 0.65118,0.08393 1.05343,-0.58916 1.5832,-0.873047 0.39029,-1.257606 0.67323,-2.575122 1.13252,-3.792104 0.72426,-0.738356 1.44788,-1.477349 2.17412,-2.213755 -0.10373,-0.962076 -0.20487,-1.924433 -0.30664,-2.886719 -0.25586,0.225911 -0.51172,0.451823 -0.76758,0.677734 z m -17.50585,10.988281 c -1.18401,0.552959 -2.06182,1.529929 -3.07227,2.330079 0.70662,0.598673 1.41143,1.199489 2.11914,1.796875 0.87583,-0.684129 0.9763,-1.870829 1.44746,-2.818567 0.2682,-0.680909 0.53633,-1.361839 0.80449,-2.042761 -0.43294,0.244791 -0.86588,0.489583 -1.29882,0.734374 z m 5.74023,-0.617187 c -0.59,0.20739 -1.36165,0.135914 -1.82812,0.535156 -1.21803,1.625219 -2.43512,3.251142 -3.65235,4.876953 0.13821,0.405977 -0.30913,1.642236 0.28259,1.405157 0.62406,-0.188539 1.23937,-0.390948 1.60258,-0.976103 1.57193,-1.688821 3.14451,-3.377043 4.71444,-5.067726 -0.35991,-0.219385 -0.64827,-0.966631 -1.11914,-0.773437 z" />
      <path
         id="path2204"
         style="fill:#111111;stroke-width:2.405"
         d="m -269.2793,-87.523438 c 0.005,0.673316 -0.13031,1.388168 0.41429,1.90062 0.29838,0.454907 0.59984,0.911848 0.89821,1.368912 0.40732,-0.493236 0.76332,-0.850564 0.6027,0.03906 -0.0676,0.679803 0.21119,1.319409 0.33871,1.97657 0.52981,-0.945505 1.22089,-2.016068 0.8131,-3.133348 0.38013,-0.373392 -0.29188,-0.926708 -0.95177,-1.208454 -0.17343,0.382839 -0.14924,1.256001 -0.30078,0.199224 -0.19417,-0.559127 -0.15652,-1.290841 -0.83683,-1.486477 -0.52447,-0.327457 -1.22259,-0.967848 -0.97763,0.09077 v 0.253124 z m 4.66602,9.558594 c -0.8237,-0.07408 -1.21987,0.837909 -1.82895,1.260892 -1.17802,1.15664 -2.47778,2.239055 -3.57991,3.44253 -0.93395,3.282659 -1.8695,6.564866 -2.80403,9.84736 0.78136,0.05957 1.53707,-0.01571 2.2396,-0.385384 0.75855,-0.04242 0.74248,-0.787271 0.91969,-1.359691 0.59395,-2.17165 1.18717,-4.343296 1.78211,-6.514691 1.35911,-1.245738 2.71984,-2.489702 4.07813,-3.736328 -0.0998,-0.863428 -0.20106,-1.726638 -0.30274,-2.589844 l -0.5039,0.03516 z m -59.63672,1.511719 c -0.76967,0.293916 -0.24871,0.823791 0.0386,1.310123 1.67262,2.847347 3.35161,5.687785 5.0239,8.53558 5.53583,-0.107086 11.07167,-0.213608 16.60742,-0.324219 0.57047,-0.256212 0.70693,-0.623708 0.24674,-1.115683 -1.12083,-2.014075 -2.24025,-4.028942 -3.36197,-6.04252 -6.1258,-0.834846 -12.2513,-1.671944 -18.37696,-2.507812 -0.0592,0.04818 -0.11849,0.09635 -0.17773,0.144531 z m 45.625,13.865234 c -0.75979,0.799454 -1.51906,1.599407 -2.2793,2.398438 0.70505,-0.985994 1.40939,-1.972566 2.11328,-2.960938 h -3.49218 c -0.46512,1.243145 -0.93116,2.485951 -1.39258,3.730469 0.29597,0.474364 0.58731,0.950912 0.88281,1.425781 0.44449,-0.696392 0.5026,0.780829 1.01445,0.666016 0.63724,0.181778 0.87502,-0.431522 1.20582,-0.85773 0.91683,-1.278259 1.92067,-2.513685 2.78383,-3.818483 0.16229,-0.594093 0.60713,-1.524938 -0.29934,-0.845202 -0.17893,0.08722 -0.35786,0.174433 -0.53679,0.261649 z"
         sodipodi:nodetypes="sccccccccccsscccccccccsccccccccccccccccccc" />
      <path
         id="path2202"
         style="fill:#0d0d0d;stroke-width:2.405"
         d="m -425.47393,-106.55876 c 0,0 55.49742,21.238532 105.68511,39.670088 0.58721,0.02653 1.17442,0.0529 1.76172,0.07813 -1.95059,-3.199142 -3.82444,-6.443906 -5.72657,-9.671875 -48.53511,-17.606045 -101.71161,-37.485343 -101.71161,-37.485343 z m 156.76495,19.666182 c 0.31011,1.18166 0.58973,2.374518 1.2537,3.417938 0.10831,0.674037 0.76338,0.450489 1.26387,0.480499 -0.0811,-1.03654 -0.16371,-2.07294 -0.24609,-3.109375 -0.92534,-0.868226 -1.84869,-1.738572 -2.77344,-2.607422 z m 3.95898,10.875 c -1.38762,1.329167 -2.77333,2.660339 -4.16211,3.988281 -0.6334,2.458625 -1.39261,4.899968 -1.95508,7.367578 -0.089,0.675213 -0.0229,1.132332 0.70313,0.661719 0.5642,-0.255774 1.31335,-0.337293 1.76287,-0.703833 0.51408,-1.900888 1.02373,-3.802979 1.53596,-5.70437 1.06637,-1.003943 2.13406,-2.006486 3.19921,-3.011719 -0.0963,-1.121585 -0.19058,-2.24334 -0.2832,-3.365234 -0.26693,0.255859 -0.53385,0.511718 -0.80078,0.767578 z m -36.45508,8.705078 c 1.68103,2.852016 3.20917,5.802268 4.87696,8.654297 0.46072,0.537449 1.05919,0.850842 1.74437,1.025623 2.95384,1.042022 5.87019,2.201965 8.8457,3.175244 1.06373,0.287478 2.11627,0.662233 3.2388,0.554574 0.60305,0.07369 1.17519,0.01644 1.66746,-0.369097 0.69202,-0.157947 0.81114,-0.659406 0.70484,-1.294938 0.0429,-0.603397 0.0435,-1.19363 -0.42905,-1.638437 -0.19475,-0.483736 -1.10029,-1.019843 -0.38692,-1.434545 1.39754,-1.503632 2.79309,-3.009116 4.19292,-4.510612 h -3.33984 c -0.84738,1.16799 -1.69722,2.334201 -2.54493,3.501953 -1.39671,-1.042689 -2.69178,-2.242865 -4.30555,-2.948754 -1.57278,-0.825608 -3.09792,-1.757869 -4.81518,-2.259417 -3.39295,-1.23807 -6.78262,-2.473527 -10.17614,-3.715657 0.24219,0.419922 0.48437,0.839844 0.72656,1.259766 z"
         sodipodi:nodetypes="ccccccccccccccccccccccccccccccccccccc" />
    </g>
    <g
       id="g4143"
       transform="matrix(0.41580063,0,0,0.41580063,-445.03537,-388.93367)"
       style="stroke-width:2.405">
      <path
         id="path3708"
         style="fill:#404040;stroke-width:2.405"
         d="m -629.69141,-479.06641 c -4.5e-4,6.15756 4.7e-4,12.31511 0.002,18.47266 48.07352,17.45324 96.14648,34.90807 144.2207,52.35937 0.43027,-0.0884 1.20069,0.30685 1.39542,-0.11259 1.69138,-6.09409 3.38102,-12.18865 5.07528,-18.28194 -0.4614,-0.49745 -0.96269,-0.92763 -1.65358,-1.04731 -49.67983,-17.37894 -99.36421,-34.7457 -149.03978,-52.13628 0,0.2487 0,0.4974 0,0.74609 z" />
      <path
         id="path3706"
         style="fill:#3e3e3e;stroke-width:2.405"
         d="m -629.70312,-489.99414 c 0.0505,3.7858 0.0983,7.57164 0.15039,11.35742 49.90414,17.48015 99.80923,34.95764 149.71484,52.4336 0.97044,-0.051 1.5235,-0.94834 2.26657,-1.46322 2.99722,-2.52133 5.99523,-5.04172 8.9932,-7.56218 -0.3988,-0.51139 -0.90703,-0.85003 -1.54795,-0.9738 -52.68778,-18.02209 -105.3718,-36.05688 -158.06194,-54.07103 -0.44559,0.003 -1.40207,-0.65957 -1.52213,-0.23175 0.002,0.17032 0.005,0.34064 0.007,0.51096 z" />
      <path
         id="path3704"
         style="fill:#242424;stroke-width:2.405"
         d="m -469.49219,-435.69531 c -0.65738,0.19535 -1.12882,0.89098 -1.71234,1.28495 -2.9279,2.46754 -5.85596,4.93489 -8.78375,7.40255 -1.71957,6.18 -3.44227,12.35913 -5.16211,18.53906 1.83377,3.09337 3.66349,6.18914 5.49609,9.2832 0.502,0.0729 0.93468,-0.038 1.24706,-0.46464 3.21632,-2.85441 6.43427,-5.70699 9.64943,-8.5627 1.67979,-5.98044 3.36001,-11.96076 5.03906,-17.94141 -1.71341,-3.18141 -3.43052,-6.36083 -5.14258,-9.54297 -0.21028,8.8e-4 -0.42059,-0.002 -0.63086,0.002 z" />
      <path
         id="path3702"
         style="fill:#0d0d0d;stroke-width:2.405"
         d="m -629.69141,-460.83008 c 0.004,2.19466 0.008,4.38932 0.01,6.58399 49.91864,18.33586 99.83762,36.67089 149.75586,55.00781 0.42692,-0.0134 1.25626,0.2486 1.42695,0.0664 -1.76392,-3.34222 -3.80501,-6.52704 -5.71015,-9.78904 -48.15292,-17.46569 -96.30505,-34.93363 -144.45899,-52.39648 -0.49142,0.0754 -1.26827,-0.31104 -1.02344,0.52734 z" />
    </g>
    <path
       style="vector-effect:none;fill:none;fill-opacity:1;stroke:#00ba00;stroke-width:10.2302;stroke-linecap:round;stroke-linejoin:round;stroke-miterlimit:4;stroke-dasharray:none;stroke-dashoffset:0;stroke-opacity:1"
       d="m -770.63205,-607.41879 11.00538,10.70797 26.17501,-26.17499"
       id="path848" />
    <g
       transform="translate(-945.72336,-678.52661)"
       id="g888">
      <path
         id="path850"
         d="m 295.13855,83.100337 -29.8026,-29.80262"
         style="opacity:1;vector-effect:none;fill:none;fill-opacity:1;stroke:#d80000;stroke-width:10.2302;stroke-linecap:round;stroke-linejoin:miter;stroke-miterlimit:4;stroke-dasharray:none;stroke-dashoffset:0;stroke-opacity:1" />
      <path
         id="path852"
         d="m 295.13855,53.297717 -29.8026,29.80261"
         style="opacity:1;vector-effect:none;fill:none;fill-opacity:1;stroke:#d80000;stroke-width:10.2302;stroke-linecap:round;stroke-linejoin:miter;stroke-miterlimit:4;stroke-dasharray:none;stroke-dashoffset:0;stroke-opacity:1" />
    </g>
  </g>
</svg>
