<?xml version="1.0" encoding="UTF-8" standalone="no"?>
<svg
   xmlns:dc="http://purl.org/dc/elements/1.1/"
   xmlns:cc="http://creativecommons.org/ns#"
   xmlns:rdf="http://www.w3.org/1999/02/22-rdf-syntax-ns#"
   xmlns:svg="http://www.w3.org/2000/svg"
   xmlns="http://www.w3.org/2000/svg"
   xmlns:xlink="http://www.w3.org/1999/xlink"
   xmlns:sodipodi="http://sodipodi.sourceforge.net/DTD/sodipodi-0.dtd"
   xmlns:inkscape="http://www.inkscape.org/namespaces/inkscape"
   inkscape:export-ydpi="300"
   inkscape:export-xdpi="300"
   inkscape:export-filename="C:\Users\rwb34\dev\openflexure-microscope\docs\diagrams\illumination_to_sangaboard_wiring.png"
   sodipodi:docname="illumination_to_sangaboard_wiring.svg"
   inkscape:version="1.0 (4035a4fb49, 2020-05-01)"
   id="svg20902"
   version="1.1"
   viewBox="0 0 41.08688 42.083988"
   height="42.083988mm"
   width="41.08688mm">
  <defs
     id="defs20896">
    <clipPath
       id="clipPath23749"
       clipPathUnits="userSpaceOnUse">
      <path
         id="path23751"
         d="m 59.949511,129.90813 c -0.876019,-0.0539 -1.359323,-0.2295 -1.948611,-0.70796 -0.582962,-0.47332 -1.042823,-1.20635 -1.183685,-1.88682 -0.04465,-0.21571 -0.06375,-3.00506 -0.06375,-9.31396 0,-9.50784 -0.0069,-9.24146 0.244854,-9.48565 0.177178,-0.17188 0.446907,-0.31783 0.772067,-0.41777 0.299985,-0.0922 0.610066,-0.11039 2.221122,-0.13027 l 1.872461,-0.0231 0.15566,-0.18459 c 0.330676,-0.39214 0.312404,0.14162 0.312055,-9.117113 -2.33e-4,-5.792867 -0.02003,-8.629467 -0.06128,-8.778039 -0.03353,-0.120724 -0.140687,-0.310308 -0.238136,-0.421296 L 61.855096,89.239757 H 60.09971 c -1.578076,0 -1.800932,-0.01193 -2.206292,-0.118102 -0.58507,-0.153244 -0.861203,-0.330647 -1.017627,-0.65378 l -0.124034,-0.256218 0.01537,-9.466312 0.01537,-9.466311 0.139758,-0.34866 c 0.457036,-1.140182 1.346668,-1.916504 2.458207,-2.145109 0.40578,-0.08346 3.576828,-0.09212 33.720672,-0.09212 30.143836,0 33.314896,0.0087 33.720676,0.09212 1.16188,0.238959 2.057,1.047893 2.53299,2.28908 l 0.12307,0.32091 0.016,28.735303 c 0.0145,26.121362 0.008,28.773642 -0.0767,29.156812 -0.27137,1.23457 -1.2114,2.21649 -2.43808,2.54671 -0.31415,0.0846 -1.21585,0.0933 -9.11039,0.0883 -7.25185,-0.005 -8.79399,-0.0192 -8.94891,-0.0847 -0.26051,-0.1101 -0.45724,-0.3244 -0.68735,-0.74875 l -0.19715,-0.36355 -0.0291,-10.29042 -0.0291,-10.29043 -0.166,-0.23952 c -0.19462,-0.28081 -0.4591,-0.39034 -0.82235,-0.34055 -0.33878,0.0464 -0.64695,0.24117 -0.8322,0.52586 l -0.15519,0.23851 -0.0291,10.43071 -0.0291,10.43071 -0.1358,0.21843 c -0.0747,0.12013 -0.25561,0.28863 -0.40204,0.37445 l -0.26624,0.15603 -22.289843,0.003 c -12.259414,0.002 -22.564413,-0.0136 -22.899997,-0.0343 z"
         style="fill:#000000;stroke-width:0.999998" />
    </clipPath>
    <marker
       inkscape:isstock="true"
       style="overflow:visible"
       id="Arrow1Send"
       refX="0"
       refY="0"
       orient="auto"
       inkscape:stockid="Arrow1Send">
      <path
         transform="matrix(-0.2,0,0,-0.2,-1.2,0)"
         style="fill:#ff0000;fill-opacity:1;fill-rule:evenodd;stroke:#ff0000;stroke-width:1pt;stroke-opacity:1"
         d="M 0,0 5,-5 -12.5,0 5,5 Z"
         id="path20432" />
    </marker>
  </defs>
  <sodipodi:namedview
     lock-margins="true"
     fit-margin-bottom="1"
     fit-margin-right="1"
     fit-margin-left="1"
     fit-margin-top="1"
     inkscape:window-maximized="0"
     inkscape:window-y="279"
     inkscape:window-x="1529"
     inkscape:window-height="1228"
     inkscape:window-width="1741"
     showgrid="false"
     inkscape:document-rotation="0"
     inkscape:current-layer="layer1"
     inkscape:document-units="mm"
     inkscape:cy="127.69113"
     inkscape:cx="135.12907"
     inkscape:zoom="3.959798"
     inkscape:pageshadow="2"
     inkscape:pageopacity="0.0"
     borderopacity="1.0"
     bordercolor="#666666"
     pagecolor="#ffffff"
     id="base" />
  <metadata
     id="metadata20899">
    <rdf:RDF>
      <cc:Work
         rdf:about="">
        <dc:format>image/svg+xml</dc:format>
        <dc:type
           rdf:resource="http://purl.org/dc/dcmitype/StillImage" />
        <dc:title></dc:title>
      </cc:Work>
    </rdf:RDF>
  </metadata>
  <g
     transform="translate(-55.751757,-94.959158)"
     id="layer1"
     inkscape:groupmode="layer"
     inkscape:label="Layer 1">
    <image
       sodipodi:absref="C:\Users\rwb34\dev\openflexure-microscope\docs\diagrams\sangaboard_v0.4.png"
       xlink:href="sangaboard_v0.4.png"
       y="58.092888"
       x="43.678761"
       width="98.902916"
       height="80.423988"
       preserveAspectRatio="none"
       id="image21475"
       style="stroke-width:8.47428"
       clip-path="url(#clipPath23749)"
       transform="matrix(0.53729029,0,0,0.53729029,26.259589,60.125579)" />
    <rect
       transform="scale(1,-1)"
       y="-126.23071"
       x="86.235657"
       height="1.6704345"
       width="3.1070082"
       id="rect20257"
       style="clip-rule:evenodd;fill:#999999;fill-rule:evenodd;stroke:#000000;stroke-width:0.264999;stroke-linejoin:round" />
    <path
       style="clip-rule:evenodd;opacity:0.5;fill:none;fill-rule:evenodd;stroke:#ffffff;stroke-width:0.5;stroke-linecap:butt;stroke-linejoin:miter;stroke-miterlimit:4;stroke-dasharray:none;stroke-opacity:1"
       d="m 88.637379,125.35758 c -0.01193,3.45945 0.736423,9.64673 -4.67578,9.64673"
       id="path23828"
       sodipodi:nodetypes="cc" />
    <path
       id="path23830"
       d="m 86.983733,125.36939 c -0.01193,3.45945 0.612812,6.75355 -3.062138,6.75355"
       style="clip-rule:evenodd;opacity:0.5;fill:none;fill-rule:evenodd;stroke:#ffffff;stroke-width:0.5;stroke-linecap:butt;stroke-linejoin:miter;stroke-miterlimit:4;stroke-dasharray:none;stroke-opacity:1"
       sodipodi:nodetypes="cc" />
    <g
       transform="matrix(0.26458333,0,0,-0.26458333,25.967302,159.11504)"
       id="g20413"
       style="clip-rule:evenodd;fill-rule:evenodd;stroke-linejoin:round">
      <path
         id="path20267"
         d="m 237.94,127.402 v 1.19 h -2.296 v -2.296 h 2.296 z"
         style="fill:#000000;stroke:#373435;stroke-width:0.09px" />
      <path
         id="path20291"
         d="m 231.761,127.402 v 1.19 h -2.325 v -2.296 h 2.325 z"
         style="fill:#ff0000;stroke:#373435;stroke-width:0.09px" />
    </g>
    <path
       id="path20415"
       d="m 76.174867,116.07453 8.35851,7.36176"
       style="clip-rule:evenodd;fill:none;fill-rule:evenodd;stroke:#ff0000;stroke-width:1;stroke-linecap:butt;stroke-linejoin:miter;stroke-miterlimit:4;stroke-dasharray:none;stroke-opacity:1;marker-end:url(#Arrow1Send)" />
    <path
       sodipodi:nodetypes="cc"
       id="path20711"
       d="m 88.637379,125.35758 c -0.01193,3.45945 0.736423,9.64673 -4.67578,9.64673"
       style="clip-rule:evenodd;fill:none;fill-rule:evenodd;stroke:#000000;stroke-width:0.264583px;stroke-linecap:butt;stroke-linejoin:miter;stroke-opacity:1" />
    <path
       sodipodi:nodetypes="cc"
       style="clip-rule:evenodd;fill:none;fill-rule:evenodd;stroke:#ff0000;stroke-width:0.264583px;stroke-linecap:butt;stroke-linejoin:miter;stroke-opacity:1"
       d="m 86.983733,125.36939 c -0.01193,3.45945 0.612812,6.75355 -3.062138,6.75355"
       id="path20713" />
    <text
       id="text20741"
       y="133.18095"
       x="69.127609"
       style="font-size:2.82223px;line-height:100%;font-family:sans-serif;clip-rule:evenodd;fill-rule:evenodd;stroke-width:0.264583;stroke-linejoin:round"
       xml:space="preserve"><tspan
         style="font-size:2.82223px;stroke-width:0.264583"
         y="133.18095"
         x="69.127609"
         id="tspan20739"
         sodipodi:role="line">5v to LED</tspan><tspan
         style="font-size:2.82223px;stroke-width:0.264583"
         id="tspan20743"
         y="136.00319"
         x="69.127609"
         sodipodi:role="line">0v to LED</tspan></text>
  </g>
</svg>
