<?xml version="1.0" encoding="UTF-8" standalone="no"?>
<svg
   width="712.84747"
   height="178.6593"
   viewBox="0 0 712.84747 178.6593"
   version="1.1"
   xml:space="preserve"
   style="clip-rule:evenodd;fill-rule:evenodd;stroke-linejoin:round;stroke-miterlimit:1.41420996"
   id="svg19"
   xmlns="http://www.w3.org/2000/svg"
   xmlns:svg="http://www.w3.org/2000/svg"
   xmlns:rdf="http://www.w3.org/1999/02/22-rdf-syntax-ns#"
   xmlns:cc="http://creativecommons.org/ns#"
   xmlns:dc="http://purl.org/dc/elements/1.1/"><metadata
   id="metadata25"><rdf:RDF><cc:Work
       rdf:about=""><dc:format>image/svg+xml</dc:format><dc:type
         rdf:resource="http://purl.org/dc/dcmitype/StillImage" /></cc:Work></rdf:RDF></metadata><defs
   id="defs23">
            
            
            
        
            
        </defs>
    <g
   transform="matrix(0.598566,0,0,0.598566,-78.224807,-25.189982)"
   id="g17">
        <path
   id="path2"
   style="fill-rule:nonzero;stroke-width:0.69149101;fill:#c5247f;fill-opacity:1"
   d="m 261.96386,122.95376 c 14.66099,-46.840913 58.42891,-80.869876 110.08329,-80.869876 51.65438,0 95.4223,34.028963 110.08399,80.869876 v 0 l 6.9e-4,0.003 c 0.37548,1.19974 0.7316,2.40777 1.06835,3.62341 16.36137,49.59512 84.91648,30.40625 84.91648,30.40625 l 45.29059,116.99198 -171.99733,66.58436 -29.07719,-75.10906 -0.1224,0.0456 -16.09514,-41.94031 c 1.22255,-0.46883 2.42575,-0.97223 3.60889,-1.50745 5.29959,-2.57926 9.91045,-5.43028 13.91695,-8.47699 10.92348,-8.63949 18.93855,-20.511 22.86,-33.89205 5.61698,-21.69207 -1.29516,-41.48876 -1.49086,-42.04196 -9.53704,-25.53814 -34.27098,-43.926962 -62.96302,-43.926962 -28.69203,0 -53.42598,18.388822 -62.96233,43.926962 -0.19569,0.55181 -7.10853,20.3492 -1.49085,42.04196 3.92144,13.38105 11.93582,25.25256 22.86,33.89205 4.00581,3.04671 8.61736,5.89773 13.91695,8.47699 1.18314,0.53522 2.38633,1.03862 3.60889,1.50745 l -0.0526,0.13692 c 0,0 -16.04328,41.80339 -16.04328,41.80339 l -0.12239,-0.0456 -29.07651,75.10906 L 130.68702,273.9784 175.9776,156.98642 c 0,0 68.55511,19.18887 84.91648,-30.40625 0.33676,-1.21564 0.69357,-2.42367 1.06905,-3.62341 z" />
        <g
   aria-label="openflexure"
   style="font-style:normal;font-variant:normal;font-weight:bold;font-stretch:normal;font-size:113.60485077px;font-family:'Open Sans';-inkscape-font-specification:'Open Sans, Bold';font-variant-ligatures:normal;font-variant-caps:normal;font-variant-numeric:normal;font-feature-settings:normal;text-align:start;writing-mode:lr-tb;text-anchor:start;opacity:1;stroke-width:1.09947002"
   id="text5"><path
     d="m 677.59278,133.22021 q 0,9.20821 2.99544,13.92325 3.05091,4.71505 9.87386,4.71505 6.76747,0 9.70744,-4.65958 2.99544,-4.71504 2.99544,-13.97872 0,-9.20821 -2.99544,-13.81231 -2.99544,-4.6041 -9.81839,-4.6041 -6.76747,0 -9.76291,4.6041 -2.99544,4.54863 -2.99544,13.81231 z m 42.87917,0 q 0,15.14362 -7.98784,23.68617 -7.98784,8.54255 -22.24392,8.54255 -8.93085,0 -15.7538,-3.88298 -6.82294,-3.93845 -10.48404,-11.26063 -3.66109,-7.32219 -3.66109,-17.08511 0,-15.19909 7.93237,-23.6307 7.93237,-8.43161 22.29939,-8.43161 8.93085,0 15.7538,3.88298 6.82294,3.88298 10.48404,11.1497 3.66109,7.26671 3.66109,17.02963 z"
     style="stroke-width:1.09947002"
     id="path78" /><path
     d="m 768.50994,165.44893 q -10.92781,0 -17.14058,-7.93237 h -0.88753 q 0.88753,7.76596 0.88753,8.98632 v 25.12842 h -16.91869 v -89.3085 h 13.75684 l 2.38526,8.04331 h 0.77659 q 5.93541,-9.20821 17.58435,-9.20821 10.98328,0 17.19605,8.48709 6.21276,8.48708 6.21276,23.57522 0,9.92933 -2.93997,17.25152 -2.8845,7.32219 -8.26519,11.14969 -5.3807,3.82751 -12.64742,3.82751 z m -4.9924,-50.75607 q -6.26824,0 -9.15273,3.88298 -2.8845,3.8275 -2.99545,12.70288 v 1.83055 q 0,9.9848 2.93997,14.31155 2.99544,4.32674 9.43009,4.32674 11.37158,0 11.37158,-18.74923 0,-9.15274 -2.82902,-13.70137 -2.77356,-4.6041 -8.76444,-4.6041 z"
     style="stroke-width:1.09947002"
     id="path80" /><path
     d="m 832.02437,113.19514 q -5.3807,0 -8.43161,3.43921 -3.05091,3.38373 -3.49468,9.65197 h 23.74164 q -0.11094,-6.26824 -3.27279,-9.65197 -3.16186,-3.43921 -8.54256,-3.43921 z m 2.38526,52.25379 q -14.9772,0 -23.40881,-8.2652 -8.43161,-8.26519 -8.43161,-23.40881 0,-15.58738 7.76596,-24.07446 7.82142,-8.54256 21.57826,-8.54256 13.14666,0 20.46884,7.48861 7.32219,7.4886 7.32219,20.69072 v 8.20973 h -39.99468 q 0.27736,7.21124 4.27128,11.26063 3.99392,4.0494 11.20517,4.0494 5.60258,0 10.59498,-1.1649 4.9924,-1.16489 10.42857,-3.71656 v 13.09118 q -4.43769,2.21885 -9.48556,3.2728 -5.04787,1.10942 -12.31459,1.10942 z"
     style="stroke-width:1.09947002"
     id="path82" /><path
     d="m 930.81844,164.33951 h -16.91869 v -36.22264 q 0,-6.71201 -2.38526,-10.04027 -2.38526,-3.38374 -7.59954,-3.38374 -7.1003,0 -10.26216,4.77051 -3.16185,4.71505 -3.16185,15.69833 v 29.17781 H 873.57225 V 102.3228 h 12.92477 l 2.27431,7.93237 h 0.94301 q 2.82903,-4.49316 7.76596,-6.76748 4.9924,-2.32979 11.31611,-2.32979 10.81687,0 16.41945,5.87994 5.60258,5.82447 5.60258,16.86322 z"
     style="stroke-width:1.09947002"
     id="path84" /><path
     d="m 979.57754,112.86231 h -14.9772 v 51.4772 h -13.09118 v -51.4772 h -10.09575 v -6.10182 l 10.09575,-3.99392 v -3.993924 q 0,-10.872339 5.10334,-16.086624 5.10334,-5.269757 15.58738,-5.269757 6.87842,0 13.53496,2.274316 l -3.43921,9.873859 q -4.82599,-1.553191 -9.20821,-1.553191 -4.43769,0 -6.49012,2.773556 -1.99696,2.718085 -1.99696,8.209725 v 3.99392 h 14.9772 z m 23.46426,51.4772 H 990.00611 V 78.026448 h 13.03569 z"
     style="font-style:normal;font-variant:normal;font-weight:600;font-stretch:normal;font-size:113.60485077px;font-family:'Open Sans';-inkscape-font-specification:'Open Sans, Semi-Bold';font-variant-ligatures:normal;font-variant-caps:normal;font-variant-numeric:normal;font-feature-settings:normal;text-align:start;writing-mode:lr-tb;text-anchor:start;stroke-width:1.09947002"
     id="path86" /><path
     d="m 1048.5836,165.44893 q -14.3115,0 -22.4103,-8.32067 -8.0433,-8.37614 -8.0433,-23.02051 0,-15.03267 7.4886,-23.6307 7.4886,-8.59802 20.5798,-8.59802 12.1481,0 19.193,7.37766 7.0448,7.37766 7.0448,20.30243 v 7.04483 h -40.8822 q 0.2773,8.93085 4.826,13.75684 4.5486,4.77051 12.8138,4.77051 5.4362,0 10.0957,-0.99848 4.7151,-1.05395 10.0958,-3.43921 v 10.59499 q -4.7705,2.27431 -9.652,3.21732 -4.8814,0.94301 -11.1497,0.94301 z m -2.3852,-53.69604 q -6.2128,0 -9.9848,3.93845 -3.7166,3.93845 -4.4377,11.48252 h 27.8465 q -0.111,-7.59954 -3.6611,-11.48252 -3.5502,-3.93845 -9.7629,-3.93845 z"
     style="font-style:normal;font-variant:normal;font-weight:600;font-stretch:normal;font-size:113.60485077px;font-family:'Open Sans';-inkscape-font-specification:'Open Sans, Semi-Bold';font-variant-ligatures:normal;font-variant-caps:normal;font-variant-numeric:normal;font-feature-settings:normal;text-align:start;writing-mode:lr-tb;text-anchor:start;stroke-width:1.09947002"
     id="path88" /><path
     d="m 1100.8929,132.99833 -20.5798,-30.00988 h 14.8663 l 13.9787,21.46732 14.0897,-21.46732 h 14.7553 l -20.6353,30.00988 21.6892,31.34118 h -14.7553 l -15.1436,-22.96505 -15.0881,22.96505 h -14.7554 z"
     style="font-style:normal;font-variant:normal;font-weight:600;font-stretch:normal;font-size:113.60485077px;font-family:'Open Sans';-inkscape-font-specification:'Open Sans, Semi-Bold';font-variant-ligatures:normal;font-variant-caps:normal;font-variant-numeric:normal;font-feature-settings:normal;text-align:start;writing-mode:lr-tb;text-anchor:start;stroke-width:1.09947002"
     id="path90" /><path
     d="m 1193.0859,164.33951 -1.8306,-8.04331 h -0.6656 q -2.7181,4.27127 -7.766,6.712 -4.9924,2.44073 -11.427,2.44073 -11.1497,0 -16.6414,-5.54711 -5.4916,-5.54711 -5.4916,-16.80775 v -40.10562 h 13.1467 v 37.8313 q 0,7.04484 2.8845,10.59499 2.8845,3.49468 9.0417,3.49468 8.2098,0 12.0373,-4.88146 3.883,-4.93693 3.883,-16.47492 v -30.56459 h 13.0911 v 61.35106 z"
     style="font-style:normal;font-variant:normal;font-weight:600;font-stretch:normal;font-size:113.60485077px;font-family:'Open Sans';-inkscape-font-specification:'Open Sans, Semi-Bold';font-variant-ligatures:normal;font-variant-caps:normal;font-variant-numeric:normal;font-feature-settings:normal;text-align:start;writing-mode:lr-tb;text-anchor:start;stroke-width:1.09947002"
     id="path92" /><path
     d="m 1253.0501,101.87903 q 3.9385,0 6.4902,0.55471 l -1.2759,12.14817 q -2.7735,-0.66565 -5.769,-0.66565 -7.8214,0 -12.7029,5.10334 -4.8259,5.10335 -4.8259,13.2576 v 32.06231 h -13.0358 v -61.35106 h 10.2067 l 1.7196,10.81687 h 0.6657 q 3.0509,-5.49164 7.9324,-8.70897 4.9369,-3.21732 10.5949,-3.21732 z"
     style="font-style:normal;font-variant:normal;font-weight:600;font-stretch:normal;font-size:113.60485077px;font-family:'Open Sans';-inkscape-font-specification:'Open Sans, Semi-Bold';font-variant-ligatures:normal;font-variant-caps:normal;font-variant-numeric:normal;font-feature-settings:normal;text-align:start;writing-mode:lr-tb;text-anchor:start;stroke-width:1.09947002"
     id="path94" /><path
     d="m 1297.7599,165.44893 q -14.3116,0 -22.4103,-8.32067 -8.0434,-8.37614 -8.0434,-23.02051 0,-15.03267 7.4886,-23.6307 7.4886,-8.59802 20.5798,-8.59802 12.1482,0 19.193,7.37766 7.0449,7.37766 7.0449,20.30243 v 7.04483 h -40.8822 q 0.2773,8.93085 4.8259,13.75684 4.5487,4.77051 12.8139,4.77051 5.4361,0 10.0957,-0.99848 4.7151,-1.05395 10.0958,-3.43921 v 10.59499 q -4.7706,2.27431 -9.652,3.21732 -4.8815,0.94301 -11.1497,0.94301 z m -2.3853,-53.69604 q -6.2127,0 -9.9848,3.93845 -3.7165,3.93845 -4.4377,11.48252 h 27.8465 q -0.1109,-7.59954 -3.661,-11.48252 -3.5502,-3.93845 -9.763,-3.93845 z"
     style="font-style:normal;font-variant:normal;font-weight:600;font-stretch:normal;font-size:113.60485077px;font-family:'Open Sans';-inkscape-font-specification:'Open Sans, Semi-Bold';font-variant-ligatures:normal;font-variant-caps:normal;font-variant-numeric:normal;font-feature-settings:normal;text-align:start;writing-mode:lr-tb;text-anchor:start;stroke-width:1.09947002"
     id="path96" /></g><g
   aria-label="microscope"
   style="font-style:normal;font-variant:normal;font-weight:300;font-stretch:normal;font-size:113.60485077px;font-family:'Open Sans';-inkscape-font-specification:'Open Sans, Light';font-variant-ligatures:normal;font-variant-caps:normal;font-variant-numeric:normal;font-feature-settings:normal;text-align:start;writing-mode:lr-tb;text-anchor:start;opacity:1;stroke-width:1.09947002"
   id="text13"><path
     d="m 740.66344,277.94449 v -39.55091 q 0,-8.81991 -3.43921,-12.8693 -3.43921,-4.04939 -10.53951,-4.04939 -9.26368,0 -13.70137,5.10334 -4.43769,5.10335 -4.43769,16.03116 v 35.3351 h -5.60258 v -41.21504 q 0,-15.25456 -13.97872,-15.25456 -9.48557,0 -13.81231,5.54711 -4.32675,5.49164 -4.32675,17.63982 v 33.28267 h -5.49164 v -60.29711 h 4.54863 l 1.16489,8.2652 h 0.33283 q 2.4962,-4.49316 7.1003,-6.93389 4.60411,-2.4962 10.15122,-2.4962 14.25608,0 18.30547,10.70593 h 0.22188 q 2.93997,-5.15882 7.8769,-7.93237 4.9924,-2.77356 11.31611,-2.77356 9.87386,0 14.81079,5.26976 4.93693,5.26975 4.93693,16.75227 v 39.43997 z"
     style="stroke-width:1.09947002"
     id="path57" /><path
     d="m 771.11708,277.94449 h -5.49164 v -60.29711 h 5.49164 z m -6.26824,-77.04939 q 0,-5.32522 3.49468,-5.32522 1.71961,0 2.66262,1.38678 0.99848,1.38677 0.99848,3.93844 0,2.49621 -0.99848,3.93845 -0.94301,1.44225 -2.66262,1.44225 -3.49468,0 -3.49468,-5.3807 z"
     style="stroke-width:1.09947002"
     id="path59" /><path
     d="m 815.4385,279.05391 q -12.92477,0 -20.24695,-8.15425 -7.32219,-8.15426 -7.32219,-22.74316 0,-14.9772 7.59954,-23.29787 7.59954,-8.37614 20.80167,-8.37614 7.82143,0 14.9772,2.71808 l -1.49772,4.88146 q -7.82142,-2.60714 -13.59042,-2.60714 -11.09422,0 -16.80775,6.87842 -5.71353,6.82295 -5.71353,19.69225 0,12.20364 5.71353,19.13753 5.71353,6.87842 15.97568,6.87842 8.20973,0 15.25456,-2.93997 v 5.10334 q -5.769,2.82903 -15.14362,2.82903 z"
     style="stroke-width:1.09947002"
     id="path61" /><path
     d="m 869.0236,216.48249 q 3.82751,0 8.20973,0.77659 l -1.05396,5.26976 q -3.77203,-0.94301 -7.82142,-0.94301 -7.71049,0 -12.64742,6.54559 -4.93693,6.5456 -4.93693,16.5304 v 33.28267 h -5.49164 v -60.29711 h 4.65958 l 0.55471,10.87234 h 0.38829 q 3.71657,-6.65653 7.93237,-9.31915 4.21581,-2.71808 10.20669,-2.71808 z"
     style="stroke-width:1.09947002"
     id="path63" /><path
     d="m 939.30551,247.71273 q 0,14.75532 -7.15577,23.07598 -7.15578,8.2652 -19.74772,8.2652 -7.93237,0 -13.97872,-3.82751 -6.04635,-3.8275 -9.26368,-10.98328 -3.21732,-7.15577 -3.21732,-16.53039 0,-14.75532 7.15577,-22.96504 7.15577,-8.2652 19.63678,-8.2652 12.42553,0 19.47036,8.37614 7.1003,8.32067 7.1003,22.8541 z m -47.59422,0 q 0,12.42553 5.43617,19.41489 5.49164,6.93389 15.47644,6.93389 9.9848,0 15.42097,-6.93389 5.49165,-6.98936 5.49165,-19.41489 0,-12.481 -5.54712,-19.35942 -5.49164,-6.87842 -15.47644,-6.87842 -9.9848,0 -15.42097,6.87842 -5.3807,6.82295 -5.3807,19.35942 z"
     style="stroke-width:1.09947002"
     id="path65" /><path
     d="m 993.38986,262.24616 q 0,8.09879 -6.15729,12.481 -6.1573,4.32675 -17.4734,4.32675 -12.09271,0 -19.19301,-3.71656 v -5.93541 q 9.09726,4.54863 19.19301,4.54863 8.93085,0 13.53495,-2.93997 4.65957,-2.99544 4.65957,-7.93237 0,-4.54863 -3.71656,-7.65502 -3.6611,-3.10638 -12.09271,-6.10182 -9.04179,-3.27279 -12.70288,-5.60258 -3.6611,-2.38526 -5.54711,-5.32523 -1.83055,-2.99544 -1.83055,-7.26672 0,-6.76747 5.65805,-10.70592 5.71353,-3.93845 15.92021,-3.93845 9.76292,0 18.52736,3.66109 l -2.05243,4.9924 q -8.87538,-3.66109 -16.47493,-3.66109 -7.37765,0 -11.7044,2.44073 -4.32675,2.44073 -4.32675,6.76748 0,4.71504 3.32827,7.54407 3.38374,2.82902 13.14665,6.32371 8.15426,2.93996 11.87082,5.32522 3.71657,2.32979 5.54712,5.32523 1.88601,2.99544 1.88601,7.04483 z"
     style="stroke-width:1.09947002"
     id="path67" /><path
     d="m 1033.1072,279.05391 q -12.9248,0 -20.247,-8.15425 -7.3222,-8.15426 -7.3222,-22.74316 0,-14.9772 7.5996,-23.29787 7.5995,-8.37614 20.8016,-8.37614 7.8215,0 14.9772,2.71808 l -1.4977,4.88146 q -7.8214,-2.60714 -13.5904,-2.60714 -11.0942,0 -16.8078,6.87842 -5.7135,6.82295 -5.7135,19.69225 0,12.20364 5.7135,19.13753 5.7136,6.87842 15.9757,6.87842 8.2097,0 15.2546,-2.93997 v 5.10334 q -5.769,2.82903 -15.1436,2.82903 z"
     style="stroke-width:1.09947002"
     id="path69" /><path
     d="m 1112.8192,247.71273 q 0,14.75532 -7.1558,23.07598 -7.1558,8.2652 -19.7477,8.2652 -7.9324,0 -13.9787,-3.82751 -6.0464,-3.8275 -9.2637,-10.98328 -3.2173,-7.15577 -3.2173,-16.53039 0,-14.75532 7.1557,-22.96504 7.1558,-8.2652 19.6368,-8.2652 12.4255,0 19.4704,8.37614 7.1003,8.32067 7.1003,22.8541 z m -47.5943,0 q 0,12.42553 5.4362,19.41489 5.4917,6.93389 15.4765,6.93389 9.9848,0 15.4209,-6.93389 5.4917,-6.98936 5.4917,-19.41489 0,-12.481 -5.5471,-19.35942 -5.4917,-6.87842 -15.4765,-6.87842 -9.9848,0 -15.421,6.87842 -5.3807,6.82295 -5.3807,19.35942 z"
     style="stroke-width:1.09947002"
     id="path71" /><path
     d="m 1155.31,279.05391 q -13.9232,0 -20.3024,-10.42857 h -0.3883 l 0.1664,4.65957 q 0.2219,4.10487 0.2219,8.98633 v 22.96504 h -5.4916 v -87.5889 h 4.6595 l 1.054,8.59803 h 0.3328 q 6.2128,-9.76292 19.8587,-9.76292 12.2036,0 18.5828,8.04331 6.4347,7.98784 6.4347,23.29787 0,14.86626 -6.7675,23.07599 -6.712,8.15425 -18.361,8.15425 z m -0.1109,-4.88146 q 9.2637,0 14.3115,-6.87842 5.1034,-6.87841 5.1034,-19.24847 0,-26.57067 -19.193,-26.57067 -10.5395,0 -15.4765,5.82447 -4.9369,5.76899 -4.9369,18.86018 v 1.77507 q 0,14.14514 4.7151,20.19149 4.7705,6.04635 15.4764,6.04635 z"
     style="stroke-width:1.09947002"
     id="path73" /><path
     d="m 1221.5426,279.05391 q -13.1467,0 -20.5243,-8.09878 -7.3222,-8.09879 -7.3222,-22.68769 0,-14.42249 7.1003,-23.07599 7.1003,-8.70896 19.1375,-8.70896 10.6505,0 16.8078,7.43313 6.1573,7.43313 6.1573,20.19149 v 4.43769 h -43.4339 q 0.1109,12.42553 5.769,18.97112 5.7135,6.54559 16.3085,6.54559 5.1588,0 9.0418,-0.72112 3.9384,-0.72113 9.9293,-3.10639 v 4.9924 q -5.1033,2.21885 -9.4301,2.99544 -4.3267,0.83207 -9.541,0.83207 z m -1.6087,-57.68996 q -8.7089,0 -13.9787,5.76899 -5.2697,5.71353 -6.1573,16.5304 h 37.2766 q 0,-10.48404 -4.5486,-16.36398 -4.5487,-5.93541 -12.592,-5.93541 z"
     style="stroke-width:1.09947002"
     id="path75" /></g>
    </g>
</svg>
